<?xml version="1.0" encoding="UTF-8"?>
<svg width="25px" height="22px" viewBox="0 0 25 22" version="1.1" xmlns="http://www.w3.org/2000/svg" xmlns:xlink="http://www.w3.org/1999/xlink">
    <!-- Generator: Sketch 52.1 (67048) - http://www.bohemiancoding.com/sketch -->
    <title>Group 8</title>
    <desc>Created with Sketch.</desc>
    <g id="Welcome" stroke="none" stroke-width="1" fill="none" fill-rule="evenodd" stroke-linecap="round" stroke-linejoin="round">
        <g id="Nguoi-dung" transform="translate(-1169.000000, -93.000000)" stroke="#4A4A4A" stroke-width="1.5">
            <g id="Group-8" transform="translate(1170.000000, 94.000000)">
                <path d="M12,2.84722222 C13.8126628,0.594419126 16.2525228,-0.202311198 19.3195801,0.45703125 C23.920166,1.44604492 23.861084,7.74291992 22.3093262,9.44873047 C21.274821,10.5859375 17.8383789,14.0209961 12,19.7539062" id="Path-13"></path>
                <path d="M11.9665527,19.8828125 L2,10.2314453 C0.4453125,8.59798177 0.056640625,6.61474609 0.833984375,4.28173828 C2,0.782226562 8.08398438,-2.53637695 11.9665527,2.98754883" id="Path-14"></path>
            </g>
        </g>
    </g>
</svg>